wave.same.vcd
$date
     Jun 24, 2021       09:31:26
$end

$version
 SystemC 2.3.3-Accellera --- Apr 11 2021 12:45:34
$end

$timescale
     1 ns
$end

$scope module SystemC $end
$var wire    1  aaaaa  clk       $end
$var wire    8  aaaab  CtrlFrom8051 [7:0]  $end
$var wire    8  aaaac  CtrlFromEncoder [7:0]  $end
$var wire    8  aaaad  DataFrom8051 [7:0]  $end
$var wire    8  aaaae  DataFromEncoder [7:0]  $end
$upscope $end
$enddefinitions  $end

$comment
All initial values are dumped below at time 0 sec = 0 timescale units.
$end

$dumpvars
0aaaaa
b11111111 aaaab
b0 aaaac
b11111111 aaaad
b0 aaaae
$end

#1
1aaaaa

#6
0aaaaa

#11
1aaaaa

#16
0aaaaa

#21
1aaaaa

#26
0aaaaa

#31
1aaaaa

#36
0aaaaa

#41
1aaaaa

#46
0aaaaa

#51
1aaaaa

#56
0aaaaa

#61
1aaaaa

#66
0aaaaa

#71
1aaaaa

#76
0aaaaa

#81
1aaaaa

#86
0aaaaa

#91
1aaaaa

#96
0aaaaa

#101
1aaaaa

#106
0aaaaa

#111
1aaaaa

#116
0aaaaa

#121
1aaaaa

#126
0aaaaa

#131
1aaaaa

#136
0aaaaa

#141
1aaaaa

#146
0aaaaa

#151
1aaaaa

#156
0aaaaa

#161
1aaaaa

#166
0aaaaa

#171
1aaaaa

#176
0aaaaa

#181
1aaaaa

#186
0aaaaa

#191
1aaaaa

#196
0aaaaa

#201
1aaaaa

#206
0aaaaa

#211
1aaaaa

#216
0aaaaa

#221
1aaaaa

#226
0aaaaa

#231
1aaaaa

#236
0aaaaa

#241
1aaaaa

#246
0aaaaa

#251
1aaaaa

#256
0aaaaa

#261
1aaaaa

#266
0aaaaa

#271
1aaaaa

#276
0aaaaa

#281
1aaaaa

#286
0aaaaa

#291
1aaaaa

#296
0aaaaa

#301
1aaaaa

#306
0aaaaa

#311
1aaaaa

#316
0aaaaa

#321
1aaaaa

#326
0aaaaa

#331
1aaaaa

#336
0aaaaa

#341
1aaaaa

#346
0aaaaa

#351
1aaaaa

#356
0aaaaa

#361
1aaaaa

#366
0aaaaa

#371
1aaaaa

#376
0aaaaa

#381
1aaaaa

#386
0aaaaa

#391
1aaaaa

#396
0aaaaa

#401
1aaaaa

#406
0aaaaa

#411
1aaaaa

#416
0aaaaa

#421
1aaaaa

#426
0aaaaa

#431
1aaaaa

#436
0aaaaa

#441
1aaaaa

#446
0aaaaa

#451
1aaaaa

#456
0aaaaa

#461
1aaaaa

#466
0aaaaa

#471
1aaaaa

#476
0aaaaa

#481
1aaaaa

#486
0aaaaa

#491
1aaaaa

#496
0aaaaa

#501
1aaaaa

#506
0aaaaa

#511
1aaaaa

#516
0aaaaa

#521
1aaaaa

#526
0aaaaa

#531
1aaaaa

#536
0aaaaa

#541
1aaaaa

#546
0aaaaa

#551
1aaaaa

#556
0aaaaa

#561
1aaaaa

#566
0aaaaa

#571
1aaaaa

#576
0aaaaa

#581
1aaaaa

#586
0aaaaa

#591
1aaaaa

#596
0aaaaa

#601
1aaaaa

#606
0aaaaa

#611
1aaaaa

#616
0aaaaa

#621
1aaaaa

#626
0aaaaa

#631
1aaaaa

#636
0aaaaa

#641
1aaaaa

#646
0aaaaa

#651
1aaaaa

#656
0aaaaa

#661
1aaaaa

#666
0aaaaa

#671
1aaaaa

#676
0aaaaa

#681
1aaaaa

#686
0aaaaa

#691
1aaaaa

#696
0aaaaa

#701
1aaaaa

#706
0aaaaa

#711
1aaaaa

#716
0aaaaa

#721
1aaaaa

#726
0aaaaa

#731
1aaaaa

#736
0aaaaa

#741
1aaaaa

#746
0aaaaa

#751
1aaaaa

#756
0aaaaa

#761
1aaaaa

#766
0aaaaa

#771
1aaaaa

#776
0aaaaa

#781
1aaaaa

#786
0aaaaa

#791
1aaaaa

#796
0aaaaa

#801
1aaaaa

#806
0aaaaa

#811
1aaaaa

#816
0aaaaa

#821
1aaaaa

#826
0aaaaa

#831
1aaaaa

#836
0aaaaa

#841
1aaaaa

#846
0aaaaa

#851
1aaaaa

#856
0aaaaa

#861
1aaaaa

#866
0aaaaa

#871
1aaaaa

#876
0aaaaa

#881
1aaaaa

#886
0aaaaa

#891
1aaaaa

#896
0aaaaa

#901
1aaaaa

#906
0aaaaa

#911
1aaaaa

#916
0aaaaa

#921
1aaaaa

#926
0aaaaa

#931
1aaaaa

#936
0aaaaa

#941
1aaaaa

#946
0aaaaa

#951
1aaaaa

#956
0aaaaa

#961
1aaaaa

#966
0aaaaa

#971
1aaaaa

#976
0aaaaa

#981
1aaaaa

#986
0aaaaa

#991
1aaaaa

#996
0aaaaa

#1001
1aaaaa

#1006
0aaaaa

#1011
1aaaaa

#1016
0aaaaa

#1021
1aaaaa

#1026
0aaaaa

#1031
1aaaaa

#1036
0aaaaa

#1041
1aaaaa

#1046
0aaaaa

#1051
1aaaaa

#1056
0aaaaa

#1061
1aaaaa

#1066
0aaaaa

#1071
1aaaaa

#1076
0aaaaa

#1081
1aaaaa

#1086
0aaaaa

#1091
1aaaaa

#1096
0aaaaa

#1101
1aaaaa

#1106
0aaaaa

#1111
1aaaaa

#1116
0aaaaa

#1121
1aaaaa

#1126
0aaaaa

#1131
1aaaaa

#1136
0aaaaa

#1141
1aaaaa

#1146
0aaaaa

#1151
1aaaaa

#1156
0aaaaa

#1161
1aaaaa

#1166
0aaaaa

#1171
1aaaaa

#1176
0aaaaa

#1181
1aaaaa

#1186
0aaaaa

#1191
1aaaaa

#1196
0aaaaa

#1201
1aaaaa

#1206
0aaaaa

#1211
1aaaaa

#1216
0aaaaa

#1221
1aaaaa

#1226
0aaaaa

#1231
1aaaaa

#1236
0aaaaa

#1241
1aaaaa

#1246
0aaaaa

#1251
1aaaaa

#1256
0aaaaa

#1261
1aaaaa

#1266
0aaaaa

#1271
1aaaaa

#1276
0aaaaa

#1281
1aaaaa

#1286
0aaaaa

#1291
1aaaaa

#1296
0aaaaa

#1301
1aaaaa

#1306
0aaaaa

#1311
1aaaaa

#1316
0aaaaa

#1321
1aaaaa

#1326
0aaaaa

#1331
1aaaaa

#1336
0aaaaa

#1341
1aaaaa

#1346
0aaaaa

#1351
1aaaaa

#1356
0aaaaa

#1361
1aaaaa

#1366
0aaaaa

#1371
1aaaaa

#1376
0aaaaa

#1381
1aaaaa

#1386
0aaaaa

#1391
1aaaaa

#1396
0aaaaa

#1401
1aaaaa

#1406
0aaaaa

#1411
1aaaaa

#1416
0aaaaa

#1421
1aaaaa

#1426
0aaaaa

#1431
1aaaaa

#1436
0aaaaa

#1441
1aaaaa

#1446
0aaaaa

#1451
1aaaaa

#1456
0aaaaa

#1461
1aaaaa

#1466
0aaaaa

#1471
1aaaaa

#1476
0aaaaa

#1481
1aaaaa

#1486
0aaaaa

#1491
1aaaaa

#1496
0aaaaa

#1501
1aaaaa

#1506
0aaaaa

#1511
1aaaaa

#1516
0aaaaa

#1521
1aaaaa

#1526
0aaaaa

#1531
1aaaaa

#1536
0aaaaa

#1541
1aaaaa

#1546
0aaaaa

#1551
1aaaaa

#1556
0aaaaa

#1561
1aaaaa

#1566
0aaaaa

#1571
1aaaaa

#1576
0aaaaa

#1581
1aaaaa

#1586
0aaaaa

#1591
1aaaaa

#1596
0aaaaa

#1601
1aaaaa

#1606
0aaaaa

#1611
1aaaaa

#1616
0aaaaa

#1621
1aaaaa

#1626
0aaaaa

#1631
1aaaaa

#1636
0aaaaa

#1641
1aaaaa

#1646
0aaaaa

#1651
1aaaaa

#1656
0aaaaa

#1661
1aaaaa

#1666
0aaaaa

#1671
1aaaaa

#1676
0aaaaa

#1681
1aaaaa

#1686
0aaaaa

#1691
1aaaaa

#1696
0aaaaa

#1701
1aaaaa

#1706
0aaaaa

#1711
1aaaaa

#1716
0aaaaa

#1721
1aaaaa

#1726
0aaaaa

#1731
1aaaaa

#1736
0aaaaa

#1741
1aaaaa

#1746
0aaaaa

#1751
1aaaaa

#1756
0aaaaa

#1761
1aaaaa

#1766
0aaaaa

#1771
1aaaaa

#1776
0aaaaa

#1781
1aaaaa

#1786
0aaaaa

#1791
1aaaaa

#1796
0aaaaa

#1801
1aaaaa

#1806
0aaaaa

#1811
1aaaaa

#1816
0aaaaa

#1821
1aaaaa

#1826
0aaaaa

#1831
1aaaaa

#1836
0aaaaa

#1841
1aaaaa

#1846
0aaaaa

#1851
1aaaaa

#1856
0aaaaa

#1861
1aaaaa

#1866
0aaaaa

#1871
1aaaaa

#1876
0aaaaa

#1881
1aaaaa

#1886
0aaaaa

#1891
1aaaaa

#1896
0aaaaa

#1901
1aaaaa

#1906
0aaaaa

#1911
1aaaaa

#1916
0aaaaa

#1921
1aaaaa

#1926
0aaaaa

#1931
1aaaaa

#1936
0aaaaa

#1941
1aaaaa

#1946
0aaaaa

#1951
1aaaaa

#1956
0aaaaa

#1961
1aaaaa

#1966
0aaaaa

#1971
1aaaaa

#1976
0aaaaa

#1981
1aaaaa

#1986
0aaaaa

#1991
1aaaaa

#1996
0aaaaa

#2001
1aaaaa

#2006
0aaaaa

#2011
1aaaaa

#2016
0aaaaa

#2021
1aaaaa

#2026
0aaaaa

#2031
1aaaaa

#2036
0aaaaa

#2041
1aaaaa

#2046
0aaaaa

#2051
1aaaaa

#2056
0aaaaa

#2061
1aaaaa

#2066
0aaaaa

#2071
1aaaaa

#2076
0aaaaa

#2081
1aaaaa

#2086
0aaaaa

#2091
1aaaaa

#2096
0aaaaa

#2101
1aaaaa

#2106
0aaaaa

#2111
1aaaaa

#2116
0aaaaa

#2121
1aaaaa

#2126
0aaaaa

#2131
1aaaaa

#2136
0aaaaa

#2141
1aaaaa

#2146
0aaaaa

#2151
1aaaaa

#2156
0aaaaa

#2161
1aaaaa

#2166
0aaaaa

#2171
1aaaaa

#2176
0aaaaa

#2181
1aaaaa

#2186
0aaaaa

#2191
1aaaaa

#2196
0aaaaa

#2201
1aaaaa

#2206
0aaaaa

#2211
1aaaaa

#2216
0aaaaa

#2221
1aaaaa

#2226
0aaaaa

#2231
1aaaaa

#2236
0aaaaa

#2241
1aaaaa

#2246
0aaaaa

#2251
1aaaaa

#2256
0aaaaa

#2261
1aaaaa

#2266
0aaaaa

#2271
1aaaaa

#2276
0aaaaa

#2281
1aaaaa

#2286
0aaaaa

#2291
1aaaaa

#2296
0aaaaa

#2301
1aaaaa

#2306
0aaaaa

#2311
1aaaaa

#2316
0aaaaa

#2321
1aaaaa

#2326
0aaaaa

#2331
1aaaaa

#2336
0aaaaa

#2341
1aaaaa

#2346
0aaaaa

#2351
1aaaaa

#2356
0aaaaa

#2361
1aaaaa

#2366
0aaaaa

#2371
1aaaaa

#2376
0aaaaa

#2381
1aaaaa

#2386
0aaaaa

#2391
1aaaaa

#2396
0aaaaa

#2401
1aaaaa

#2406
0aaaaa

#2411
1aaaaa

#2416
0aaaaa

#2421
1aaaaa

#2426
0aaaaa

#2431
1aaaaa

#2436
0aaaaa

#2441
1aaaaa

#2446
0aaaaa

#2451
1aaaaa

#2456
0aaaaa

#2461
1aaaaa

#2466
0aaaaa

#2471
1aaaaa

#2476
0aaaaa

#2481
1aaaaa

#2486
0aaaaa

#2491
1aaaaa

#2496
0aaaaa

#2501
1aaaaa

#2506
0aaaaa

#2511
1aaaaa

#2516
0aaaaa

#2521
1aaaaa

#2526
0aaaaa

#2531
1aaaaa

#2536
0aaaaa

#2541
1aaaaa

#2546
0aaaaa

#2551
1aaaaa

#2556
0aaaaa

#2561
1aaaaa

#2566
0aaaaa

#2571
1aaaaa

#2576
0aaaaa

#2581
1aaaaa

#2586
0aaaaa

#2591
1aaaaa

#2596
0aaaaa

#2601
1aaaaa

#2606
0aaaaa

#2611
1aaaaa

#2616
0aaaaa

#2621
1aaaaa

#2626
0aaaaa

#2631
1aaaaa

#2636
0aaaaa

#2641
1aaaaa

#2646
0aaaaa

#2651
1aaaaa

#2656
0aaaaa

#2661
1aaaaa

#2666
0aaaaa

#2671
1aaaaa

#2676
0aaaaa

#2681
1aaaaa

#2686
0aaaaa

#2691
1aaaaa

#2696
0aaaaa

#2701
1aaaaa

#2706
0aaaaa

#2711
1aaaaa

#2716
0aaaaa

#2721
1aaaaa

#2726
0aaaaa

#2731
1aaaaa

#2736
0aaaaa

#2741
1aaaaa

#2746
0aaaaa

#2751
1aaaaa

#2756
0aaaaa

#2761
1aaaaa

#2766
0aaaaa

#2771
1aaaaa

#2776
0aaaaa

#2781
1aaaaa

#2786
0aaaaa

#2791
1aaaaa

#2796
0aaaaa

#2801
1aaaaa

#2806
0aaaaa

#2811
1aaaaa

#2816
0aaaaa

#2821
1aaaaa

#2826
0aaaaa

#2831
1aaaaa

#2836
0aaaaa

#2841
1aaaaa

#2846
0aaaaa

#2851
1aaaaa

#2856
0aaaaa

#2861
1aaaaa

#2866
0aaaaa

#2871
1aaaaa

#2876
0aaaaa

#2881
1aaaaa

#2886
0aaaaa

#2891
1aaaaa

#2896
0aaaaa

#2901
1aaaaa

#2906
0aaaaa

#2911
1aaaaa

#2916
0aaaaa

#2921
1aaaaa

#2926
0aaaaa

#2931
1aaaaa

#2936
0aaaaa

#2941
1aaaaa

#2946
0aaaaa

#2951
1aaaaa

#2956
0aaaaa

#2961
1aaaaa

#2966
0aaaaa

#2971
1aaaaa

#2976
0aaaaa

#2981
1aaaaa

#2986
0aaaaa

#2991
1aaaaa

#2996
0aaaaa

#3001
1aaaaa

#3006
0aaaaa

#3011
1aaaaa

#3016
0aaaaa

#3021
1aaaaa

#3026
0aaaaa

#3031
1aaaaa

#3036
0aaaaa

#3041
1aaaaa

#3046
0aaaaa

#3051
1aaaaa

#3056
0aaaaa

#3061
1aaaaa

#3066
0aaaaa

#3071
1aaaaa

#3076
0aaaaa

#3081
1aaaaa

#3086
0aaaaa

#3091
1aaaaa

#3096
0aaaaa

#3101
1aaaaa

#3106
0aaaaa

#3111
1aaaaa

#3116
0aaaaa

#3121
1aaaaa

#3126
0aaaaa

#3131
1aaaaa

#3136
0aaaaa

#3141
1aaaaa

#3146
0aaaaa

#3151
1aaaaa

#3156
0aaaaa

#3161
1aaaaa

#3166
0aaaaa

#3171
1aaaaa

#3176
0aaaaa

#3181
1aaaaa

#3186
0aaaaa

#3191
1aaaaa

#3196
0aaaaa

#3201
1aaaaa

#3206
0aaaaa

#3211
1aaaaa

#3216
0aaaaa

#3221
1aaaaa

#3226
0aaaaa

#3231
1aaaaa

#3236
0aaaaa

#3241
1aaaaa

#3246
0aaaaa

#3251
1aaaaa

#3256
0aaaaa

#3261
1aaaaa

#3266
0aaaaa

#3271
1aaaaa

#3276
0aaaaa

#3281
1aaaaa

#3286
0aaaaa

#3291
1aaaaa

#3296
0aaaaa

#3301
1aaaaa

#3306
0aaaaa

#3311
1aaaaa

#3316
0aaaaa

#3321
1aaaaa

#3326
0aaaaa

#3331
1aaaaa

#3336
0aaaaa

#3341
1aaaaa

#3346
0aaaaa

#3351
1aaaaa

#3356
0aaaaa

#3361
1aaaaa

#3366
0aaaaa

#3371
1aaaaa

#3376
0aaaaa

#3381
1aaaaa

#3386
0aaaaa

#3391
1aaaaa

#3396
0aaaaa

#3401
1aaaaa

#3406
0aaaaa

#3411
1aaaaa
b1010101 aaaab

#3416
0aaaaa

#3421
1aaaaa
b0 aaaad

#3426
0aaaaa

#3431
1aaaaa

#3436
0aaaaa

#3441
1aaaaa
b0 aaaab

#3446
0aaaaa

#3451
1aaaaa
b10010110 aaaab

#3456
0aaaaa

#3461
1aaaaa
b0 aaaab

#3466
0aaaaa

#3471
1aaaaa

#3476
0aaaaa

#3481
1aaaaa

#3486
0aaaaa

#3491
1aaaaa

#3496
0aaaaa

#3501
1aaaaa

#3506
0aaaaa

#3511
1aaaaa

#3516
0aaaaa

#3521
1aaaaa

#3526
0aaaaa

#3531
1aaaaa

#3536
0aaaaa

#3541
1aaaaa

#3546
0aaaaa

#3551
1aaaaa

#3556
0aaaaa

#3561
1aaaaa

#3566
0aaaaa

#3571
1aaaaa

#3576
0aaaaa

#3581
1aaaaa
b111 aaaad

#3586
0aaaaa

#3591
1aaaaa
b11000000 aaaab

#3596
0aaaaa

#3601
1aaaaa
b1 aaaac

#3606
0aaaaa

#3611
1aaaaa

#3616
0aaaaa

#3621
1aaaaa

#3626
0aaaaa

#3631
1aaaaa
b11001100 aaaac

#3636
0aaaaa

#3641
1aaaaa

#3646
0aaaaa

#3651
1aaaaa

#3656
0aaaaa

#3661
1aaaaa

#3666
0aaaaa

#3671
1aaaaa

#3676
0aaaaa

#3681
1aaaaa

#3686
0aaaaa

#3691
1aaaaa

#3696
0aaaaa

#3701
1aaaaa

#3706
0aaaaa

#3711
1aaaaa

#3716
0aaaaa

#3721
1aaaaa
b11001100 aaaab

#3726
0aaaaa

#3731
1aaaaa

#3736
0aaaaa

#3741
1aaaaa
b11 aaaac

